lab1/wokwi-logic.vcd
$version Generated by Wokwi.com $end
$date Wed, 09 Apr 2025 16:38:07 GMT $end
$timescale 1ns $end
$scope module logic $end
$var wire 1 ! D0 $end
$var wire 1 " D1 $end
$var wire 1 # D2 $end
$var wire 1 $ D3 $end
$upscope $end
$enddefinitions $end
#0
0!
#0
0"
#0
0#
#0
0$
#70410187
1"
#121572375
1$
#1070732999
0$
#1900367876
0"
#1900379750
1#
#1900393000
0#
#1900676229
1"
#1900693000
1!
#1900861675
0"
#1900873562
1#
#1900886812
0#
#1901186407
1"
#1901399069
0"
#1901411000
1#
#1901424250
0#
#1901688305
1"
#1901741554
0"
#1901753375
1#
#1901766625
0#
#1901992315
1"
#1902029247
0"
#1902041062
1#
#1902054312
0#
#1902099797
1"
#1902150933
0"
#1902162812
1#
#1902176062
0#
#1902261872
1"
#1902355956
0"
#1902367812
1#
#1902381062
0#
#1924221000
0!
#1966787143
1"
#1966801407
0"
#1966812613
1"
#1966813250
1#
#1966826500
0#
#1966829709
0"
#1966830246
1"
#1966841750
1#
#1966854252
0"
#1966855872
1"
#1966860750
0#
#1966864827
0"
#1966876687
1#
#1966877741
1"
#1966889937
0#
#1966894625
1#
#1966900048
0"
#1966903351
1"
#1966906500
0#
#1966911875
1#
#1966925125
0#
#1966927951
0"
#1966936503
1"
#1966939812
1#
#1966953062
0#
#1966959807
0"
#1966966307
1"
#1966971625
1#
#1966978345
0"
#1966984875
0#
#1966985390
1"
#1966990250
1#
#1967002398
0"
#1967008875
0#
#1967014250
1#
#1967019364
1"
#1967027500
0#
#1967032023
0"
#1967044000
1#
#1967049604
1"
#1967057250
0#
#1967065015
0"
#1967076875
1#
#1967081479
1"
#1967090125
0#
#1967094681
0"
#1967104541
1"
#1967106500
1#
#1967111938
0"
#1967118500
0#
#1967123875
1#
#1967126500
1!
#1967131367
1"
#1967137145
0"
#1967143687
0#
#1967149062
1#
#1967161968
1"
#1967162312
0#
#1967177337
0"
#1967185040
1"
#1967189187
1#
#1967202437
0#
#1967206926
0"
#1967210904
1"
#1967218812
1#
#1967224179
0"
#1967230687
0#
#1967236062
1#
#1967245894
1"
#1967255686
0"
#1967262250
0#
#1967267625
1#
#1967276475
1"
#1967280875
0#
#1967292131
0"
#1967303282
1"
#1967304062
1#
#1967317312
0#
#1967325340
0"
#1967337312
1#
#1967344662
1"
#1967350562
0#
#1967357376
0"
#1967369250
1#
#1967381779
1"
#1967382500
0#
#1967392900
0"
#1967402376
1"
#1967404812
1#
#1967413504
0"
#1967420062
0#
#1967424775
1"
#1967425437
1#
#1967438687
0#
#1967440781
0"
#1967449902
1"
#1967452625
1#
#1967455915
0"
#1967457558
1"
#1967462375
0#
#1967467750
1#
#1967475434
0"
#1967481116
1"
#1967481875
0#
#1967484485
0"
#1967489688
1"
#1967496312
1#
#1967497000
0"
#1967503562
0#
#1967508937
1#
#1967518389
1"
#1967526797
0"
#1967533375
0#
#1967538750
1#
#1967545287
1"
#1967552000
0#
#1967567251
0"
#1967579187
1#
#1967589437
1"
#1967592437
0#
#1967600193
0"
#1967612187
1#
#1967621642
1"
#1967625423
0"
#1967625437
0#
#1967626809
1"
#1967637437
1#
#1967645409
0"
#1967651937
0#
#1967655454
1"
#1967657312
1#
#1967664911
0"
#1967671437
0#
#1967676812
1#
#1967685175
1"
#1967690062
0#
#1967708461
0"
#1967714204
1"
#1967715325
0"
#1967727187
1#
#1967740437
0#
#1967740556
1"
#1967748812
1#
#1967762062
0#
#1967763043
0"
#1967774875
1#
#1967776835
1"
#1967788125
0#
#1967801904
0"
#1967807653
1"
#1967813750
1#
#1967827000
0#
#1967831713
0"
#1967841896
1"
#1967843625
1#
#1967856875
0#
#1967862450
0"
#1967872410
1"
#1967874312
1#
#1967877859
0"
#1967884312
0#
#1967889687
1#
#1967898082
1"
#1967902937
0#
#1967917593
0"
#1967917681
1"
#1967929500
1#
#1967941069
0"
#1967945075
1"
#1967947562
0#
#1967952937
1#
#1967958069
0"
#1967960143
1"
#1967964562
0#
#1967969937
1#
#1967970256
0"
#1967973292
1"
#1967976812
0#
#1967981366
0"
#1967985936
1"
#1967989307
0"
#1967993190
1"
#1968001187
1#
#1968014437
0#
#1968015936
0"
#1968020115
1"
#1968027750
1#
#1968037666
0"
#1968044187
0#
#1968049562
1#
#1968057383
1"
#1968062812
0#
#1968070579
0"
#1968077740
1"
#1968081353
0"
#1968090863
1"
#1968092507
0"
#1968099446
1"
#1968104375
1#
#1968112065
0"
#1968114805
1"
#1968118625
0#
#1968124000
1#
#1968135230
0"
#1968141687
0#
#1968147062
1#
#1968150350
1"
#1968160312
0#
#1968162625
0"
#1968174500
1#
#1968187658
1"
#1968187750
0#
#1968196169
0"
#1968204991
1"
#1968208062
1#
#1968215903
0"
#1968222437
0#
#1968224184
1"
#1968227812
1#
#1968233920
0"
#1968234075
1"
#1968236195
0"
#1968243250
0#
#1968246118
1"
#1968248625
1#
#1968253337
0"
#1968259833
1"
#1968259875
0#
#1968265250
1#
#1968273649
0"
#1968280125
0#
#1968284523
1"
#1968285500
1#
#1968306279
0"
#1968306500
0#
#1968318500
1#
#1968318629
1"
#1968331750
0#
#1968338718
0"
#1968350625
1#
#1968360459
1"
#1968363875
0#
#1968370628
0"
#1968382500
1#
#1968395010
1"
#1968395750
0#
#1968396489
0"
#1968396867
1"
#1968397798
0"
#1968409547
1"
#1968411187
1#
#1968411424
0"
#1968417937
0#
#1968422129
1"
#1968423312
1#
#1968436562
0#
#1968441600
0"
#1968453437
1#
#1968454322
1"
#1968459574
0"
#1968466062
0#
#1968471437
1#
#1968482324
1"
#1968484687
0#
#1968496933
0"
#1968508750
1#
#1968520545
1"
#1968522000
0#
#1968538593
0"
#1968541841
1"
#1968548729
0"
#1968560625
1#
#1968561588
1"
#1968563756
0"
#1968570250
0#
#1968575625
1#
#1968586052
1"
#1968588875
0#
#1968599878
0"
#1968610714
1"
#1968611812
1#
#1968612167
0"
#1968618687
0#
#1968621753
1"
#1968623994
0"
#1968624062
1#
#1968624883
1"
#1968630687
0#
#1968636062
1#
#1968643955
0"
#1968650437
0#
#1968655812
1#
#1968661801
1"
#1968669062
0#
#1968678745
0"
#1968689408
1"
#1968690625
1#
#1968696576
0"
#1968703125
0#
#1968708500
1#
#1968714681
1"
#1968721750
0#
#1968738308
0"
#1968750187
1#
#1968759123
1"
#1968763437
0#
#1968777883
0"
#1968789750
1#
#1968799371
1"
#1968803000
0#
#1968804425
0"
#1968816312
1#
#1968828398
1"
#1968829562
0#
#1968847784
0"
#1968856757
1"
#1968859687
1#
#1968863076
0"
#1968869562
0#
#1968874937
1#
#1968885490
1"
#1968888187
0#
#1968907790
0"
#1968919625
1#
#1968925172
1"
#1968932875
0#
#1968940730
0"
#1968952625
1#
#1968963058
1"
#1968965875
0#
#1968980500
1#
#1968993750
0#
#1969012875
1#
#1969026125
0#
#1969057562
1#
#1969070812
0#
#1969104437
1#
#1969117687
0#
#1969122312
1#
#1969135562
0#
#1969146937
1#
#1969160187
0#
#1969164437
1#
#1969177687
0#
#1969217000
1#
#1969230250
0#
#1990654500
0!
#2138509875
1$
#2200081465
0"
#2200085988
1"
#2200093312
1#
#2200114312
0#
#2200124681
0"
#2200136562
1#
#2200149812
0#
#2200155888
1"
#2200161088
0"
#2200166174
1"
#2200172937
1#
#2200185462
0"
#2200186699
1"
#2200191937
0#
#2200197312
1#
#2200204809
0"
#2200211312
0#
#2200213894
1"
#2200216687
1#
#2200229937
0#
#2200239910
0"
#2200251750
1#
#2200265000
0#
#2200265818
1"
#2200297106
0"
#2200308937
1#
#2200319166
1"
#2200322187
0#
#2200322675
0"
#2200334562
1#
#2200347812
0#
#2200359886
1"
#2200390730
0"
#2200402562
1#
#2200414312
1!
#2200421375
0#
#2200421534
1"
#2200425402
0"
#2200430671
1"
#2200436490
0"
#2200448437
1#
#2200449249
1"
#2200461687
0#
#2200465750
1#
#2200479000
0#
#2200479755
0"
#2200491625
1#
#2200504875
0#
#2200508822
1"
#2200519572
0"
#2200526951
1"
#2200531500
1#
#2200536718
0"
#2200543250
0#
#2200548625
1#
#2200551408
1"
#2200561875
0#
#2200570382
0"
#2200582250
1#
#2200595500
0#
#2200606993
1"
#2200623926
0"
#2200635750
1#
#2200649000
0#
#2200651725
1"
#2200655161
0"
#2200667000
1#
#2200680250
0#
#2200689335
1"
#2200702249
0"
#2200705111
1"
#2200705586
0"
#2200715000
1"
#2200717437
1#
#2200725592
0"
#2200727616
1"
#2200732062
0#
#2200737437
1#
#2200750687
0#
#2200752547
0"
#2200764375
1#
#2200769258
1"
#2200777625
0#
#2200791064
0"
#2200794493
1"
#2200795048
0"
#2200807000
1#
#2200809856
1"
#2200820250
0#
#2200831437
1#
#2200844687
0#
#2200850865
0"
#2200863250
1#
#2200876500
0#
#2200885125
1#
#2200891480
1"
#2200898375
0#
#2200915007
0"
#2200926875
1#
#2200938531
1"
#2200940125
0#
#2200954834
0"
#2200960441
1"
#2200966687
1#
#2200979937
0#
#2200985516
0"
#2200996831
1"
#2201001187
1#
#2201014437
0#
#2201021985
0"
#2201033875
1#
#2201035675
1"
#2201047125
0#
#2201055150
0"
#2201066614
1"
#2201067000
1#
#2201080250
0#
#2201099185
0"
#2201103711
1"
#2201111000
1#
#2201124250
0#
#2201136791
0"
#2201156375
1#
#2201169625
0#
#2201173908
1"
#2201181799
0"
#2201193687
1#
#2201195336
1"
#2201206937
0#
#2201218332
0"
#2201230187
1#
#2201243437
0#
#2201248047
1"
#2201259700
0"
#2201271562
1#
#2201279981
1"
#2201284812
0#
#2201321458
0"
#2201333312
1#
#2201333740
1"
#2201346562
0#
#2201351211
0"
#2201363062
1#
#2201376312
0#
#2201388910
1"
#2201412469
0"
#2201424312
1#
#2201424599
1"
#2201437562
0#
#2201442931
0"
#2201444922
1"
#2201454812
1#
#2201464282
0"
#2201465572
1"
#2201470812
0#
#2201476187
1#
#2201489437
0#
#2201503529
0"
#2201515437
1#
#2201528687
0#
#2201542352
1"
#2201559471
0"
#2201571312
1#
#2201584071
1"
#2201584562
0#
#2201625420
0"
#2201637312
1#
#2201650562
0#
#2201664190
1"
#2201672519
0"
#2201674773
1"
#2201684437
1#
#2201697687
0#
#2201698703
0"
#2201703805
1"
#2201710750
1#
#2201714949
0"
#2201721500
0#
#2201726875
1#
#2201735639
1"
#2201740125
0#
#2201752731
0"
#2201764625
1#
#2201767416
1"
#2201777875
0#
#2201801917
0"
#2201813812
1#
#2201827062
0#
#2201836584
1"
#2201864096
0"
#2201869157
1"
#2201875937
1#
#2201883176
0"
#2201889687
0#
#2201895062
1#
#2201908312
0#
#2201912020
1"
#2201918094
0"
#2201929937
1#
#2201942200
1"
#2201943187
0#
#2201943966
0"
#2201955812
1#
#2201969062
0#
#2201978709
1"
#2201986187
0"
#2201998000
1#
#2202002517
1"
#2202017250
0#
#2202040295
0"
#2202052187
1#
#2202065437
0#
#2223942312
0!
#2283578486
1"
#2283582046
0"
#2283588588
1"
#2283589404
0"
#2283601250
1#
#2283609442
1"
#2283614500
0#
#2283621246
0"
#2283629629
1"
#2283631439
0"
#2283637472
1"
#2283646750
1#
#2283660000
0#
#2283660440
0"
#2283669571
1"
#2283672375
1#
#2283683603
0"
#2283686661
1"
#2283690062
0#
#2283695437
1#
#2283705696
0"
#2283712250
0#
#2283717625
1#
#2283727789
1"
#2283730875
0#
#2283747699
0"
#2283759562
1#
#2283766284
1"
#2283768876
0"
#2283775437
0#
#2283780812
1#
#2283794062
0#
#2283794819
1"
#2283811812
1#
#2283816468
0"
#2283822937
0#
#2283828312
1#
#2283839903
1"
#2283841562
0#
#2283857702
0"
#2283858125
1#
#2283859224
1"
#2283864750
0#
#2283870125
1#
#2283882820
0"
#2283889312
0#
#2283894687
1#
#2283897443
1"
#2283907937
0#
#2283908876
0"
#2283910181
1"
#2283914500
1!
#2283926312
1#
#2283936027
0"
#2283938768
1"
#2283942562
0#
#2283947937
1#
#2283957300
0"
#2283963812
0#
#2283969187
1#
#2283982437
0#
#2283983316
1"
#2283989587
0"
#2284001687
1#
#2284010299
1"
#2284014937
0#
#2284020147
0"
#2284021689
1"
#2284032000
1#
#2284040983
0"
#2284047500
0#
#2284052875
1#
#2284059274
1"
#2284066125
0#
#2284076663
0"
#2284084622
1"
#2284089000
1#
#2284102250
0#
#2284106278
0"
#2284115319
1"
#2284118125
1#
#2284131375
0#
#2284139357
0"
#2284151187
1#
#2284156484
1"
#2284164437
0#
#2284180120
0"
#2284191937
1#
#2284205187
0#
#2284206883
1"
#2284216003
0"
#2284226070
1"
#2284227937
1#
#2284230394
0"
#2284231136
1"
#2284236937
0#
#2284242312
1#
#2284255562
0#
#2284256660
0"
#2284268625
1#
#2284271138
1"
#2284281875
0#
#2284284064
0"
#2284295937
1#
#2284300487
1"
#2284309187
0#
#2284317740
0"
#2284319445
1"
#2284329562
1#
#2284332756
0"
#2284339312
0#
#2284344687
1#
#2284357307
1"
#2284357937
0#
#2284365003
0"
#2284376937
1#
#2284386491
1"
#2284390187
0#
#2284405502
0"
#2284417437
1#
#2284420847
1"
#2284430687
0#
#2284435830
0"
#2284447687
1#
#2284458302
1"
#2284460937
0#
#2284476685
0"
#2284488562
1#
#2284501812
0#
#2284501878
1"
#2284506638
0"
#2284511184
1"
#2284517025
0"
#2284528480
1"
#2284528937
1#
#2284542187
0#
#2284547000
1#
#2284548972
0"
#2284555500
0#
#2284560875
1#
#2284562107
1"
#2284574125
0#
#2284576013
0"
#2284587937
1#
#2284594811
1"
#2284601187
0#
#2284601462
0"
#2284613312
1#
#2284625165
1"
#2284626562
0#
#2284629577
0"
#2284641812
1#
#2284654993
1"
#2284655062
0#
#2284681574
0"
#2284689242
1"
#2284694000
1#
#2284696949
0"
#2284697863
1"
#2284703500
0#
#2284708875
1#
#2284716352
0"
#2284719943
1"
#2284722875
0#
#2284728250
1#
#2284739566
0"
#2284746062
0#
#2284751437
1#
#2284764687
0#
#2284765491
1"
#2284782393
0"
#2284794375
1#
#2284797734
1"
#2284805506
0"
#2284812062
0#
#2284817437
1#
#2284824910
1"
#2284830687
0#
#2284831379
0"
#2284843312
1#
#2284853138
1"
#2284856562
0#
#2284872450
0"
#2284883096
1"
#2284884375
1#
#2284897625
0#
#2284908333
0"
#2284920187
1#
#2284920272
1"
#2284933437
0#
#2284933829
0"
#2284939615
1"
#2284943628
0"
#2284961500
1#
#2284970582
1"
#2284974750
0#
#2284977211
0"
#2284989062
1#
#2285002312
0#
#2285003174
1"
#2285008687
1#
#2285016996
0"
#2285021674
1"
#2285023437
0#
#2285025865
0"
#2285035486
1"
#2285037687
1#
#2285049909
0"
#2285056375
0#
#2285061750
1#
#2285070223
1"
#2285073211
0"
#2285079812
0#
#2285085187
1#
#2285098437
0#
#2285098742
1"
#2285099409
0"
#2285111250
1#
#2285114626
1"
#2285122500
0"
#2285129000
0#
#2285134375
1#
#2285147625
0#
#2285148052
1"
#2285168670
0"
#2285180625
1#
#2285191486
1"
#2285193875
0#
#2285199812
1#
#2285210781
0"
#2285212017
1"
#2285217250
0#
#2285222625
1#
#2285235875
0#
#2285239321
0"
#2285251187
1#
#2285260188
1"
#2285264437
0#
#2285281494
0"
#2285293687
1#
#2285297928
1"
#2285306937
0#
#2285317763
0"
#2285329687
1#
#2285335902
1"
#2285340599
0"
#2285347062
0#
#2285352437
1#
#2285356168
1"
#2285365687
0#
#2285368278
0"
#2285378995
1"
#2285380125
1#
#2285382826
0"
#2285389375
0#
#2285390869
1"
#2285394750
1#
#2285408000
0#
#2285410560
0"
#2285422437
1#
#2285434883
1"
#2285435687
0#
#2285447257
0"
#2285447558
1"
#2285459187
1#
#2285472437
0#
#2285474512
0"
#2285486375
1#
#2285499625
0#
#2285499902
1"
#2285506129
0"
#2285509247
1"
#2285518000
1#
#2285529422
0"
#2285535875
0#
#2285541250
1#
#2285554500
0#
#2285556646
1"
#2285580585
0"
#2285590127
1"
#2285592500
1#
#2285605111
0"
#2285611459
1"
#2285611687
0#
#2285611690
0"
#2285612280
1"
#2285623687
1#
#2285631866
0"
#2285631962
1"
#2285636689
0"
#2285643187
0#
#2285648562
1#
#2285651755
1"
#2285661812
0#
#2285669415
0"
#2285681250
1#
#2285683542
1"
#2285694500
0#
#2285700687
1#
#2285701514
0"
#2285708000
0#
#2285713375
1#
#2285716111
1"
#2285734375
0#
#2285740855
0"
#2285752687
1#
#2285765937
0#
#2285766788
1"
#2285793137
0"
#2285800645
1"
#2285805125
1#
#2285818375
0#
#2285818419
0"
#2285830375
1#
#2285843547
1"
#2285843625
0#
#2285852812
1#
#2285866062
0#
#2285869550
0"
#2285881375
1#
#2285892372
1"
#2285894625
0#
#2307442500
0!
#3070733750
0$
#4070729062
1$
#4550182375
0!
